…
List all the wav files in each of the longitudinal study folders and compute the duration.

``` r
wav_files <- list(tp1 = "tp1", tp2 = "tp2", tp3 = "tp3") %>% 
  # find the files in each study, creating a data-frame for each study
  map(find_waves) %>% 
  map(~ data_frame(file = .x)) %>% 
  # collapse to a single data-frame
  bind_rows(.id = "study") %>% 
  mutate(
    token = basename(file),
    duration = map_dbl(file, get_wave_duration)) %>% 
  select(study, token, duration, file)
wav_files
#> # A tibble: 1,668 × 4
#>    study               token duration
#>    <chr>               <chr>    <dbl>
#> 1    tp1  AAE_cake_811_8.wav 712.4036
#> 2    tp1 AAE_cake_812_20.wav 712.4036
#> 3    tp1   AAE_check1_16.wav 913.8549
#> 4    tp1    AAE_check1_4.wav 913.8549
#> 5    tp1    AAE_check1_8.wav 913.8549
#> 6    tp1   AAE_check2_10.wav 913.8549
#> 7    tp1   AAE_Cim_331_6.wav 712.4036
#> 8    tp1  AAE_Cim_332_32.wav 712.4036
#> 9    tp1  AAE_dog_311_12.wav 712.4036
#> 10   tp1  AAE_dog_311_34.wav 712.4036
#> # ... with 1,658 more rows, and 1 more variables: file <chr>
```

Deduce dialect and experiment name.

``` r
wav_files <- wav_files %>% 
  mutate(
    task = file %>% stringr::str_extract("MP|RWL"),
    dialect = file %>% stringr::str_extract("AAE|SAE")) %>% 
  select(study, task, dialect, token, duration, file)
wav_files
#> # A tibble: 1,668 × 6
#>    study  task dialect               token duration
#>    <chr> <chr>   <chr>               <chr>    <dbl>
#> 1    tp1    MP     AAE  AAE_cake_811_8.wav 712.4036
#> 2    tp1    MP     AAE AAE_cake_812_20.wav 712.4036
#> 3    tp1    MP     AAE   AAE_check1_16.wav 913.8549
#> 4    tp1    MP     AAE    AAE_check1_4.wav 913.8549
#> 5    tp1    MP     AAE    AAE_check1_8.wav 913.8549
#> 6    tp1    MP     AAE   AAE_check2_10.wav 913.8549
#> 7    tp1    MP     AAE   AAE_Cim_331_6.wav 712.4036
#> 8    tp1    MP     AAE  AAE_Cim_332_32.wav 712.4036
#> 9    tp1    MP     AAE  AAE_dog_311_12.wav 712.4036
#> 10   tp1    MP     AAE  AAE_dog_311_34.wav 712.4036
#> # ... with 1,658 more rows, and 1 more variables: file <chr>
```
…
